<?xml version="1.0" encoding="UTF-8" standalone="no"?>
<!-- Created with Inkscape (http://www.inkscape.org/) -->

<svg
   xmlns:dc="http://purl.org/dc/elements/1.1/"
   xmlns:cc="http://creativecommons.org/ns#"
   xmlns:rdf="http://www.w3.org/1999/02/22-rdf-syntax-ns#"
   xmlns:svg="http://www.w3.org/2000/svg"
   xmlns="http://www.w3.org/2000/svg"
   xmlns:sodipodi="http://sodipodi.sourceforge.net/DTD/sodipodi-0.dtd"
   xmlns:inkscape="http://www.inkscape.org/namespaces/inkscape"
   width="85.104118mm"
   height="106.4249mm"
   viewBox="0 0 85.104118 106.4249"
   version="1.1"
   id="svg8"
   inkscape:version="0.92.4 (5da689c313, 2019-01-14)"
   sodipodi:docname="gbl-logo.svg">
  <defs
     id="defs2" />
  <sodipodi:namedview
     id="base"
     pagecolor="#ffffff"
     bordercolor="#666666"
     borderopacity="1.0"
     inkscape:pageopacity="0.0"
     inkscape:pageshadow="2"
     inkscape:zoom="1.4"
     inkscape:cx="283.7648"
     inkscape:cy="180.02133"
     inkscape:document-units="mm"
     inkscape:current-layer="g1006"
     showgrid="false"
     fit-margin-top="0"
     fit-margin-left="0"
     fit-margin-right="0"
     fit-margin-bottom="0"
     inkscape:window-width="1916"
     inkscape:window-height="991"
     inkscape:window-x="1280"
     inkscape:window-y="53"
     inkscape:window-maximized="0" />
  <metadata
     id="metadata5">
    <rdf:RDF>
      <cc:Work
         rdf:about="">
        <dc:format>image/svg+xml</dc:format>
        <dc:type
           rdf:resource="http://purl.org/dc/dcmitype/StillImage" />
        <dc:title />
      </cc:Work>
    </rdf:RDF>
  </metadata>
  <g
     inkscape:label="Vrstva 1"
     inkscape:groupmode="layer"
     id="layer1"
     transform="translate(-43.183781,-112.80243)">
    <g
       id="g1006">
      <circle
         r="1.6703016"
         cy="114.48943"
         cx="82.333244"
         id="path878"
         style="opacity:1;fill:#ffffff;fill-opacity:1;fill-rule:nonzero;stroke:none;stroke-width:0;stroke-linecap:square;stroke-miterlimit:4;stroke-dasharray:none;stroke-dashoffset:0;stroke-opacity:1" />
      <circle
         style="opacity:1;fill:#ffffff;fill-opacity:1;fill-rule:nonzero;stroke:none;stroke-width:0;stroke-linecap:square;stroke-miterlimit:4;stroke-dasharray:none;stroke-dashoffset:0;stroke-opacity:1"
         id="circle880"
         cx="89.749977"
         cy="114.47273"
         r="1.6703016" />
      <circle
         r="4.7439013"
         cy="134.7184"
         cx="86.208656"
         id="circle882"
         style="opacity:1;fill:#ffffff;fill-opacity:1;fill-rule:nonzero;stroke:none;stroke-width:0;stroke-linecap:square;stroke-miterlimit:4;stroke-dasharray:none;stroke-dashoffset:0;stroke-opacity:1" />
      <path
         d="m 82.246464,140.16577 c 2.615103,-0.003 8.77499,0.005 7.880745,0.002 0,0 0.63977,0.0497 0.844655,-0.15523 0.204885,-0.20488 0.200453,-0.70158 0.200453,-0.70158 l 0.0098,-8.98798 c 0,0 0.05902,-0.27839 -0.243647,-0.52204 -0.30267,-0.24365 -0.60066,-0.23959 -0.60066,-0.23959 l -1.435244,0.004 c 0,0 -0.276752,-3.5e-4 -0.398877,-0.21633 -0.04001,-0.0708 -0.05946,-0.0948 -0.08242,-0.29103 -0.04419,-0.37772 -0.06943,-1.04186 -0.05527,-1.44013 0,0 -0.03341,-2.00453 -2.171565,-2.07134 -2.138156,-0.0668 -2.307227,1.85132 -2.307227,1.85132 l -0.08066,1.52295 c 0,0 0.0057,0.38573 -0.200451,0.53084 -0.206185,0.14511 -0.620929,0.11371 -0.620929,0.11371 l -1.067045,0.0236 c 0,0 -0.347243,-0.0682 -0.548378,0.16669 -0.201135,0.23488 -0.192346,0.61045 -0.192346,0.61045 l -0.149502,8.93905 c 0,0 -0.04574,0.35887 0.210236,0.61485 0.255977,0.25598 0.500437,0.25749 0.500437,0.25749 z m -9.816423,3.38811 h 26.860587 c 0,0 -2.906556,-1.40317 -3.407685,-2.17157 -0.501131,-0.76839 -1.002263,-0.86862 -1.369759,-2.67269 -0.367495,-1.80407 -4.443354,-21.31475 -4.443354,-21.31475 h -7.851042 c 0,0 -4.009043,20.07863 -4.476766,21.68225 -0.467719,1.60361 -1.737251,2.40542 -3.040189,3.17382 -1.302941,0.7684 -2.271792,1.30294 -2.271792,1.30294 z"
         style="fill:#ffffff;fill-opacity:1;fill-rule:evenodd;stroke:none;stroke-width:0.2;stroke-linecap:butt;stroke-linejoin:miter;stroke-miterlimit:4;stroke-dasharray:none;stroke-opacity:1"
         id="path890"
         inkscape:connector-curvature="0" />
      <path
         id="rect897"
         transform="scale(0.26458333)"
         d="m 295.13867,555.90039 c -4.49624,0.0113 -4.51367,3.53516 -4.51367,3.53516 v 39.92578 a 64.110328,64.110328 0 0 1 8.6543,-4.41016 l 0.35937,-35.57812 c 0,0 -0.004,-3.484 -4.5,-3.47266 z"
         style="opacity:1;fill:#ffffff;fill-opacity:1;fill-rule:nonzero;stroke:none;stroke-width:0.77321804;stroke-linecap:square;stroke-miterlimit:4;stroke-dasharray:none;stroke-dashoffset:0;stroke-opacity:1"
         inkscape:connector-curvature="0" />
      <path
         id="rect897-7"
         transform="scale(0.26458333)"
         d="m 306.61328,553.36133 c -4.49624,0.0113 -4.51367,3.53711 -4.51367,3.53711 v 36.94922 a 64.110328,64.110328 0 0 1 8.66601,-2.45313 l 0.34766,-34.56055 c 0,0 -0.004,-3.48399 -4.5,-3.47265 z"
         style="opacity:1;fill:#ffffff;fill-opacity:1;fill-rule:nonzero;stroke:none;stroke-width:0.77321804;stroke-linecap:square;stroke-miterlimit:4;stroke-dasharray:none;stroke-dashoffset:0;stroke-opacity:1"
         inkscape:connector-curvature="0" />
      <path
         id="path917"
         transform="scale(0.26458333)"
         d="m 318.57812,551.93359 c -4.49624,0.0113 -4.51367,3.53516 -4.51367,3.53516 v 35.28906 a 64.110328,64.110328 0 0 1 8.66407,-0.76953 l 0.3496,-34.58203 c 0,0 -0.004,-3.48399 -4.5,-3.47266 z"
         style="opacity:1;fill:#ffffff;fill-opacity:1;fill-rule:nonzero;stroke:none;stroke-width:0.77321804;stroke-linecap:square;stroke-miterlimit:4;stroke-dasharray:none;stroke-dashoffset:0;stroke-opacity:1"
         inkscape:connector-curvature="0" />
      <path
         id="path919"
         transform="scale(0.26458333)"
         d="m 330.54297,552.29102 c -4.49624,0.0113 -4.51367,3.53515 -4.51367,3.53515 v 34.22266 a 64.110328,64.110328 0 0 1 8.6582,0.87109 l 0.35547,-35.15625 c 0,0 -0.004,-3.48399 -4.5,-3.47265 z"
         style="opacity:1;fill:#ffffff;fill-opacity:1;fill-rule:nonzero;stroke:none;stroke-width:0.77321804;stroke-linecap:square;stroke-miterlimit:4;stroke-dasharray:none;stroke-dashoffset:0;stroke-opacity:1"
         inkscape:connector-curvature="0" />
      <path
         id="path921"
         transform="scale(0.26458333)"
         d="m 342.41797,553.54102 c -4.49624,0.0113 -4.51367,3.53515 -4.51367,3.53515 v 34.45703 a 64.110328,64.110328 0 0 1 8.63867,2.60352 l 0.375,-37.12305 c 0,0 -0.004,-3.48399 -4.5,-3.47265 z"
         style="opacity:1;fill:#ffffff;fill-opacity:1;fill-rule:nonzero;stroke:none;stroke-width:0.77321804;stroke-linecap:square;stroke-miterlimit:4;stroke-dasharray:none;stroke-dashoffset:0;stroke-opacity:1"
         inkscape:connector-curvature="0" />
      <path
         id="path923"
         transform="scale(0.26458333)"
         d="m 354.38281,556.93359 c -4.49624,0.0113 -4.51367,3.53516 -4.51367,3.53516 v 34.99219 a 64.110328,64.110328 0 0 1 8.61133,4.65429 l 0.40039,-39.70898 c 0,0 -0.002,-3.48399 -4.49805,-3.47266 z"
         style="opacity:1;fill:#ffffff;fill-opacity:1;fill-rule:nonzero;stroke:none;stroke-width:0.77321804;stroke-linecap:square;stroke-miterlimit:4;stroke-dasharray:none;stroke-dashoffset:0;stroke-opacity:1"
         inkscape:connector-curvature="0" />
      <path
         sodipodi:nodetypes="ccsccczsccscccccccccc"
         inkscape:connector-curvature="0"
         id="circle956"
         d="m 286.82422,557.79297 c -40.18647,15.14481 -66.80888,53.57599 -66.86328,96.52148 5.4e-4,57.04367 46.24344,103.28657 103.28711,103.28711 57.04443,5.4e-4 103.28852,-46.24268 103.28906,-103.28711 -0.005,-3.38528 -0.17643,-6.76827 -0.51367,-10.13672 -2.53895,2.32265 -12.46043,9.35219 -20.03632,12.06807 -11.93337,3.3441 -23.45655,2.62989 -37.06225,1.0168 -13.60571,-1.6131 -37.16862,-11.71236 -48.88434,-11.49133 -17.32166,0.32679 -27.96138,8.29548 -35.26614,12.00892 l 0.26337,37.02858 c 6.20991,-5.19994 21.01515,-13.0103 38.85142,-12.43832 20.58323,0.66008 19.798,9.68967 47.59471,14.63498 -11.74966,13.01059 -28.73585,21.13907 -47.52491,21.16059 -35.40641,-5.3e-4 -64.10885,-28.70297 -64.10937,-64.10938 0.0316,-20.72538 10.08024,-40.15701 26.97461,-52.16211 z m 75.3164,0.90625 v 43.95117 c 2.70638,2.03855 5.24689,4.28844 7.59766,6.72852 l 27.99805,-26.375 c -10.02402,-10.51463 -22.15331,-18.79649 -35.59571,-24.30469 z"
         style="opacity:1;fill:#ffffff;fill-opacity:1;fill-rule:nonzero;stroke:none;stroke-width:1.18002033;stroke-linecap:square;stroke-miterlimit:4;stroke-dasharray:none;stroke-dashoffset:0;stroke-opacity:1"
         transform="scale(0.26458333)" />
      <rect
         y="160.5589"
         x="75.436829"
         height="8.1517324"
         width="20.780205"
         id="rect967"
         style="opacity:1;fill:#ffffff;fill-opacity:1;fill-rule:nonzero;stroke:none;stroke-width:0.2;stroke-linecap:square;stroke-miterlimit:4;stroke-dasharray:none;stroke-dashoffset:0;stroke-opacity:1" />
      <path
         sodipodi:nodetypes="czc"
         inkscape:connector-curvature="0"
         id="path969"
         d="m 49.798364,184.3631 c 0,0 8.300953,26.28999 36.096725,26.45833 27.795771,0.16833 35.246281,-26.36384 35.246281,-26.36384"
         style="fill:none;fill-rule:evenodd;stroke:none;stroke-width:0.26458332px;stroke-linecap:butt;stroke-linejoin:miter;stroke-opacity:1" />
      <path
         style="fill:none;fill-opacity:1;fill-rule:evenodd;stroke:none;stroke-width:0.26458332px;stroke-linecap:butt;stroke-linejoin:miter;stroke-opacity:1"
         d="m 43.183781,188.89882 c 0,0 9.907353,30.25875 42.238838,30.23809 32.331481,-0.0207 42.711311,-29.67113 42.711311,-29.67113"
         id="path971"
         inkscape:connector-curvature="0"
         sodipodi:nodetypes="czc" />
      <g
         aria-label="GYMNÁZIUM J. S. MACHARA"
         style="font-style:normal;font-variant:normal;font-weight:bold;font-stretch:normal;font-size:10.58333302px;line-height:125%;font-family:'DejaVu Serif';-inkscape-font-specification:'DejaVu Serif Bold';letter-spacing:0px;word-spacing:0px;fill:#ffffff;fill-opacity:1;stroke:none;stroke-width:0.26458332px;stroke-linecap:butt;stroke-linejoin:miter;stroke-opacity:1"
         id="text975">
        <path
           d="m 53.252105,185.5241 0.813808,1.89806 -2.370312,1.01629 q -0.593582,-0.65355 -0.993393,-1.58603 -0.290185,-0.6768 -0.230544,-1.26857 0.06093,-0.58876 0.462238,-1.05639 0.402597,-0.46461 1.127527,-0.77544 0.706883,-0.30308 1.329593,-0.24602 0.622709,0.0571 1.109245,0.46094 0.490833,0.4056 0.801654,1.13053 0.170242,0.39706 0.253676,0.79929 0.08344,0.40223 0.08091,0.74516 l -1.093698,0.0238 q 0.03214,-0.57285 -0.212905,-1.14438 -0.22441,-0.52339 -0.685548,-0.6604 -0.458131,-0.13831 -1.086805,0.13124 -0.616642,0.26439 -0.831882,0.65936 -0.210941,0.39669 -0.0033,0.88098 0.110916,0.25869 0.26007,0.46537 l 0.688835,-0.29534 -0.336616,-0.78509 z"
           style="font-style:normal;font-variant:normal;font-weight:800;font-stretch:normal;font-size:6.70277786px;font-family:'Open Sans';-inkscape-font-specification:'Open Sans Ultra-Bold';fill:#ffffff;fill-opacity:1;stroke-width:0.26458332px"
           id="path884" />
        <path
           d="m 55.421148,189.38987 1.949675,-0.16011 0.692555,1.21759 -3.313077,0.0734 -1.62441,0.92395 -0.644012,-1.13225 1.590272,-0.90453 1.790584,-2.82954 0.695792,1.22329 z"
           style="font-style:normal;font-variant:normal;font-weight:800;font-stretch:normal;font-size:6.70277786px;font-family:'Open Sans';-inkscape-font-specification:'Open Sans Ultra-Bold';fill:#ffffff;fill-opacity:1;stroke-width:0.26458332px"
           id="path886" />
        <path
           d="m 55.404484,194.94344 2.183276,-2.8404 -0.01756,-0.0237 q -0.663186,0.57814 -1.057308,0.87085 l -1.668449,1.23912 -0.682979,-0.91962 3.841374,-2.8529 1.02642,1.38205 -2.132155,2.8269 0.01561,0.021 3.310782,-1.2399 1.028372,1.38468 -3.841374,2.8529 -0.708347,-0.95377 1.684214,-1.25083 q 0.0762,-0.0566 0.295553,-0.21135 0.211473,-0.1489 0.810984,-0.5493 l -0.01756,-0.0237 -3.337134,1.27579 z"
           style="font-style:normal;font-variant:normal;font-weight:800;font-stretch:normal;font-size:6.70277786px;font-family:'Open Sans';-inkscape-font-specification:'Open Sans Ultra-Bold';fill:#ffffff;fill-opacity:1;stroke-width:0.26458332px"
           id="path888" />
        <path
           d="m 61.319777,201.6473 -1.196038,-1.20151 1.156134,-3.61685 -0.02078,-0.0209 q -0.505858,0.59129 -0.816675,0.90069 l -1.52857,1.5216 -0.808134,-0.81183 3.391152,-3.37569 1.19142,1.19687 -1.128278,3.57989 0.01385,0.0139 q 0.498847,-0.56123 0.791107,-0.85215 l 1.533209,-1.52622 0.812752,0.81647 z"
           style="font-style:normal;font-variant:normal;font-weight:800;font-stretch:normal;font-size:6.70277786px;font-family:'Open Sans';-inkscape-font-specification:'Open Sans Ultra-Bold';fill:#ffffff;fill-opacity:1;stroke-width:0.26458332px"
           id="path891" />
        <path
           d="m 61.702511,202.00613 z m 2.747242,2.09161 0.355733,-0.85625 -1.23691,-0.94171 -0.73592,0.56679 -1.130145,-0.86044 4.152523,-2.87702 1.372318,1.04482 -1.652662,4.78028 z m 0.784554,-1.86252 0.311762,-0.74987 q 0.121261,-0.29434 0.282409,-0.67349 0.165735,-0.37977 0.241427,-0.52781 -0.09555,0.0877 -0.424212,0.36808 -0.34837,0.29008 -1.221236,0.96651 z m 0.984012,-3.28611 0.0575,-0.0755 q 0.694053,-0.11739 0.932674,-0.16607 0.203911,-0.0463 0.347574,-0.0891 l 1.114521,0.84854 -0.04163,0.0547 q -0.330619,0.007 -0.891456,-0.0123 -0.560837,-0.0198 -0.842128,-0.0447 z"
           style="font-style:normal;font-variant:normal;font-weight:800;font-stretch:normal;font-size:6.70277786px;font-family:'Open Sans';-inkscape-font-specification:'Open Sans Ultra-Bold';fill:#ffffff;fill-opacity:1;stroke-width:0.26458332px"
           id="path893" />
        <path
           d="m 68.990439,206.9133 -3.224067,-1.87126 0.400867,-0.69067 3.268745,-1.50477 -1.749319,-1.01531 0.524085,-0.90297 3.136319,1.82034 -0.399225,0.68783 -3.270387,1.5076 1.837067,1.06624 z"
           style="font-style:normal;font-variant:normal;font-weight:800;font-stretch:normal;font-size:6.70277786px;font-family:'Open Sans';-inkscape-font-specification:'Open Sans Ultra-Bold';fill:#ffffff;fill-opacity:1;stroke-width:0.26458332px"
           id="path895" />
        <path
           d="m 69.627323,207.18167 2.01241,-4.34113 1.178816,0.54646 -2.01241,4.34113 z"
           style="font-style:normal;font-variant:normal;font-weight:800;font-stretch:normal;font-size:6.70277786px;font-family:'Open Sans';-inkscape-font-specification:'Open Sans Ultra-Bold';fill:#ffffff;fill-opacity:1;stroke-width:0.26458332px"
           id="path897" />
        <path
           d="m 77.132697,204.96235 -0.929192,2.7261 q -0.201677,0.59168 -0.570365,0.93281 -0.368688,0.34113 -0.880451,0.41219 -0.510707,0.068 -1.139567,-0.14638 -0.616469,-0.21013 -0.975266,-0.56755 -0.354644,-0.35946 -0.438309,-0.8444 -0.08261,-0.48804 0.119067,-1.07972 l 0.938695,-2.75398 1.229839,0.4192 -0.905962,2.65794 q -0.161552,0.47396 -0.05994,0.7541 0.101608,0.28013 0.457859,0.40156 0.374837,0.12776 0.614977,-0.029 0.244294,-0.15877 0.411126,-0.64823 l 0.90385,-2.65175 z"
           style="font-style:normal;font-variant:normal;font-weight:800;font-stretch:normal;font-size:6.70277786px;font-family:'Open Sans';-inkscape-font-specification:'Open Sans Ultra-Bold';fill:#ffffff;fill-opacity:1;stroke-width:0.26458332px"
           id="path899" />
        <path
           d="m 78.620882,210.14075 -0.379081,-3.56243 -0.02903,-0.005 q -0.08123,0.87605 -0.164603,1.35984 l -0.352948,2.04807 -1.128855,-0.19454 0.812615,-4.71539 1.696507,0.29237 0.40677,3.51738 0.0258,0.004 1.541309,-3.18167 1.699732,0.29292 -0.812615,4.71539 -1.170783,-0.20177 0.356283,-2.06741 q 0.01612,-0.0935 0.06815,-0.3569 0.05036,-0.25369 0.20812,-0.95714 l -0.02903,-0.005 -1.535634,3.22582 z"
           style="font-style:normal;font-variant:normal;font-weight:800;font-stretch:normal;font-size:6.70277786px;font-family:'Open Sans';-inkscape-font-specification:'Open Sans Ultra-Bold';fill:#ffffff;fill-opacity:1;stroke-width:0.26458332px"
           id="path901" />
        <path
           d="m 84.312871,212.29861 q -0.350137,-0.006 -0.669591,-0.0807 l 0.01802,-1.0046 0.221754,0.0465 q 0.123879,0.0284 0.254771,0.0308 0.215973,0.004 0.348392,-0.0789 0.132361,-0.0795 0.194609,-0.26492 0.06225,-0.18547 0.06789,-0.49961 l 0.07944,-4.42744 1.299109,0.0233 -0.07745,4.31618 q -0.0175,0.97515 -0.455095,1.46485 -0.434325,0.48976 -1.281855,0.47455 z"
           style="font-style:normal;font-variant:normal;font-weight:800;font-stretch:normal;font-size:6.70277786px;font-family:'Open Sans';-inkscape-font-specification:'Open Sans Ultra-Bold';fill:#ffffff;fill-opacity:1;stroke-width:0.26458332px"
           id="path903" />
        <path
           d="m 86.820821,210.27953 q -0.0098,-0.30421 0.16163,-0.4702 0.174627,-0.16938 0.514825,-0.18037 0.323842,-0.0105 0.502498,0.14749 0.178655,0.15795 0.188381,0.4589 0.0095,0.2944 -0.165007,0.46704 -0.171355,0.16927 -0.485384,0.17941 -0.327113,0.0106 -0.518853,-0.14696 -0.188575,-0.1609 -0.19809,-0.45531 z"
           style="font-style:normal;font-variant:normal;font-weight:800;font-stretch:normal;font-size:6.70277786px;font-family:'Open Sans';-inkscape-font-specification:'Open Sans Ultra-Bold';fill:#ffffff;fill-opacity:1;stroke-width:0.26458332px"
           id="path905" />
        <path
           d="m 93.620792,208.68738 q 0.06703,0.44003 -0.107218,0.81749 -0.171503,0.37374 -0.5603,0.62497 -0.398011,0.25595 -0.957756,0.34122 -0.46915,0.0715 -0.799324,0.0555 -0.330666,-0.0192 -0.705237,-0.13094 l -0.173481,-1.1389 q 0.394199,0.13197 0.805196,0.17861 0.410505,0.0434 0.740528,-0.007 0.275019,-0.0419 0.396618,-0.15642 0.124342,-0.11826 0.0997,-0.28003 -0.01429,-0.0938 -0.0769,-0.15713 -0.0631,-0.0665 -0.194646,-0.12595 -0.155177,-0.0624 -0.677254,-0.20803 -0.48775,-0.13759 -0.750771,-0.29947 -0.263021,-0.16188 -0.415692,-0.40347 -0.153163,-0.24483 -0.205405,-0.58779 -0.06555,-0.43033 0.100684,-0.77347 0.165738,-0.34637 0.541808,-0.57249 0.376069,-0.22613 0.929343,-0.3104 0.737699,-0.11237 1.549795,0.11154 l -0.241181,1.04647 q -0.706374,-0.2036 -1.191702,-0.12968 -0.239428,0.0365 -0.346328,0.13883 -0.103665,0.10187 -0.08297,0.23776 0.0207,0.13589 0.183547,0.22696 0.148428,0.0833 0.840873,0.28243 0.435768,0.12232 0.702024,0.28371 0.265764,0.15816 0.406264,0.38505 0.140007,0.22366 0.189784,0.55045 z"
           style="font-style:normal;font-variant:normal;font-weight:800;font-stretch:normal;font-size:6.70277786px;font-family:'Open Sans';-inkscape-font-specification:'Open Sans Ultra-Bold';fill:#ffffff;fill-opacity:1;stroke-width:0.26458332px"
           id="path907" />
        <path
           d="m 94.209947,209.45923 q -0.06984,-0.29625 0.06538,-0.49289 0.137655,-0.20058 0.468949,-0.27868 0.315367,-0.0743 0.521748,0.0451 0.206381,0.11948 0.27547,0.41255 0.06759,0.28669 -0.06932,0.49046 -0.134469,0.19983 -0.440279,0.27192 -0.318552,0.0751 -0.537675,-0.0414 -0.216689,-0.12041 -0.284276,-0.40711 z"
           style="font-style:normal;font-variant:normal;font-weight:800;font-stretch:normal;font-size:6.70277786px;font-family:'Open Sans';-inkscape-font-specification:'Open Sans Ultra-Bold';fill:#ffffff;fill-opacity:1;stroke-width:0.26458332px"
           id="path909" />
        <path
           d="m 100.0611,208.22241 -2.26448,-2.7761 -0.02704,0.0117 q 0.410776,0.77802 0.605371,1.22874 l 0.823787,1.90801 -1.051661,0.45406 -1.896655,-4.39294 1.580496,-0.68238 2.263044,2.72325 0.024,-0.0104 -0.44818,-3.50682 1.5835,-0.68368 1.89666,4.39294 -1.09073,0.47092 -0.83157,-1.92604 q -0.0376,-0.0871 -0.13799,-0.33612 -0.0965,-0.23997 -0.34883,-0.91529 l -0.027,0.0117 0.47706,3.54069 z"
           style="font-style:normal;font-variant:normal;font-weight:800;font-stretch:normal;font-size:6.70277786px;font-family:'Open Sans';-inkscape-font-specification:'Open Sans Ultra-Bold';fill:#ffffff;fill-opacity:1;stroke-width:0.26458332px"
           id="path911" />
        <path
           d="m 106.49077,204.72802 -0.68784,-0.62176 -1.30134,0.85047 0.28784,0.88316 -1.18901,0.77705 -1.32156,-4.87587 1.44381,-0.94357 3.95163,3.15705 z m -1.4926,-1.36259 -0.60231,-0.54472 q -0.23679,-0.21277 -0.54015,-0.49151 -0.30242,-0.28326 -0.4166,-0.40413 0.0507,0.11938 0.20491,0.52293 0.15678,0.42536 0.50211,1.47426 z"
           style="font-style:normal;font-variant:normal;font-weight:800;font-stretch:normal;font-size:6.70277786px;font-family:'Open Sans';-inkscape-font-specification:'Open Sans Ultra-Bold';fill:#ffffff;fill-opacity:1;stroke-width:0.26458332px"
           id="path913" />
        <path
           d="m 107.19091,199.33006 q -0.23022,0.1991 -0.28723,0.47341 -0.0545,0.27216 0.0662,0.59183 0.12102,0.31506 0.41004,0.64925 0.90346,1.04466 1.69809,0.35743 0.22032,-0.19054 0.38645,-0.43373 0.16646,-0.24781 0.335,-0.58828 l 0.71506,0.82681 q -0.27961,0.5923 -0.85145,1.08685 -0.54461,0.47099 -1.10747,0.58566 -0.56287,0.11466 -1.11596,-0.12962 -0.5531,-0.24428 -1.06905,-0.84087 -0.48598,-0.56194 -0.64132,-1.17184 -0.15534,-0.6099 0.0416,-1.18267 0.2016,-0.57242 0.7363,-1.03486 0.58917,-0.50953 1.34192,-0.71484 l 0.36628,1.02892 q -0.32442,0.0902 -0.56923,0.20238 -0.24233,0.11005 -0.45522,0.29417 z"
           style="font-style:normal;font-variant:normal;font-weight:800;font-stretch:normal;font-size:6.70277786px;font-family:'Open Sans';-inkscape-font-specification:'Open Sans Ultra-Bold';fill:#ffffff;fill-opacity:1;stroke-width:0.26458332px"
           id="path915" />
        <path
           d="m 114.05279,197.65253 -0.86575,0.96887 -1.45453,-1.29972 -1.00095,1.12018 1.45452,1.29972 -0.86575,0.96886 -3.56797,-3.18822 0.86575,-0.96887 1.32274,1.18196 1.00095,-1.12018 -1.32273,-1.18196 0.86574,-0.96886 z"
           style="font-style:normal;font-variant:normal;font-weight:800;font-stretch:normal;font-size:6.70277786px;font-family:'Open Sans';-inkscape-font-specification:'Open Sans Ultra-Bold';fill:#ffffff;fill-opacity:1;stroke-width:0.26458332px"
           id="path918" />
        <path
           d="m 116.34988,194.41547 -0.87168,-0.31603 -0.88391,1.27887 0.6,0.7091 -0.80761,1.16848 -3.06473,-4.01598 0.98068,-1.41887 4.85115,1.43134 z m -1.89659,-0.69817 -0.76339,-0.27699 q -0.2996,-0.10761 -0.68576,-0.25117 -0.38698,-0.14812 -0.53834,-0.21693 0.092,0.0914 0.38718,0.40686 0.30578,0.33467 1.02159,1.17555 z"
           style="font-style:normal;font-variant:normal;font-weight:800;font-stretch:normal;font-size:6.70277786px;font-family:'Open Sans';-inkscape-font-specification:'Open Sans Ultra-Bold';fill:#ffffff;fill-opacity:1;stroke-width:0.26458332px"
           id="path920" />
        <path
           d="m 116.47774,190.81844 1.53169,0.82796 -0.61474,1.13725 -4.20929,-2.27532 0.74547,-1.3791 q 0.92756,-1.71596 2.17135,-1.04364 0.72842,0.39375 0.74553,1.32565 l 2.49699,-0.23514 -0.69722,1.28985 -2.01415,0.0646 z m -0.85511,-0.46222 0.11517,-0.21306 q 0.32216,-0.59598 -0.20473,-0.88078 -0.43474,-0.235 -0.75067,0.34946 l -0.1214,0.22457 z"
           style="font-style:normal;font-variant:normal;font-weight:800;font-stretch:normal;font-size:6.70277786px;font-family:'Open Sans';-inkscape-font-specification:'Open Sans Ultra-Bold';fill:#ffffff;fill-opacity:1;stroke-width:0.26458332px"
           id="path922" />
        <path
           d="m 120.61619,186.04107 -0.9201,-0.11452 -0.57777,1.44325 0.74251,0.55813 -0.5279,1.31867 -3.88019,-3.23494 0.64102,-1.60124 5.0479,0.31806 z m -2.00429,-0.25947 -0.80585,-0.1005 q -0.31602,-0.0384 -0.72442,-0.0926 -0.41021,-0.0585 -0.57308,-0.0919 0.10998,0.0687 0.46788,0.3107 0.37248,0.2584 1.25718,0.91927 z"
           style="font-style:normal;font-variant:normal;font-weight:800;font-stretch:normal;font-size:6.70277786px;font-family:'Open Sans';-inkscape-font-specification:'Open Sans Ultra-Bold';fill:#ffffff;fill-opacity:1;stroke-width:0.26458332px"
           id="path924" />
      </g>
      <g
         aria-label="BRANDÝS n.L. - STARÁ BOLESLAV"
         style="font-style:normal;font-variant:normal;font-weight:800;font-stretch:normal;font-size:6.70277786px;line-height:125%;font-family:'Open Sans';-inkscape-font-specification:'Open Sans Ultra-Bold';letter-spacing:0px;word-spacing:0px;fill:#ffffff;fill-opacity:1;stroke:none;stroke-width:0.26458332px;stroke-linecap:butt;stroke-linejoin:miter;stroke-opacity:1"
         id="text982">
        <path
           d="m 47.724993,187.51763 0.653572,1.53588 q 0.383173,0.90044 0.299687,1.44815 -0.08349,0.54771 -0.643628,0.78607 -0.243933,0.10381 -0.482868,0.10234 -0.237654,0.002 -0.442822,-0.0961 -0.202157,-0.0989 -0.337484,-0.28321 l -0.03012,0.0128 q 0.06331,0.44968 -0.107193,0.74276 -0.170502,0.29308 -0.580067,0.46736 -0.394509,0.16788 -0.773768,0.0874 -0.377978,-0.0775 -0.696048,-0.39028 -0.313776,-0.31108 -0.532915,-0.82605 l -0.729182,-1.71355 z m -1.18326,1.90848 0.1525,0.35837 q 0.11021,0.25899 0.274563,0.35267 0.167364,0.0924 0.372147,0.005 0.370416,-0.15763 0.132054,-0.71777 l -0.142248,-0.33428 z m -0.870327,0.37036 -0.924535,0.39342 0.178131,0.4186 q 0.23708,0.55713 0.706876,0.35722 0.21984,-0.0935 0.273214,-0.29411 0.05465,-0.19754 -0.06581,-0.48062 z"
           style="fill:#ffffff;fill-opacity:1;stroke-width:0.26458332px"
           id="path832" />
        <path
           d="m 47.30132,193.82725 -1.52837,0.83408 -0.619289,-1.13478 4.200146,-2.29216 0.750986,1.37611 q 0.934422,1.71224 -0.306661,2.38953 -0.726838,0.39666 -1.517861,-0.0963 l -1.162131,2.22255 -0.702384,-1.28705 1.042347,-1.72467 z m 0.853245,-0.46564 0.116019,0.21259 q 0.324539,0.59469 0.850275,0.30778 0.433805,-0.23674 0.115537,-0.81994 l -0.12229,-0.22408 z"
           style="fill:#ffffff;fill-opacity:1;stroke-width:0.26458332px"
           id="path834" />
        <path
           d="m 48.99808,199.93911 0.614522,-0.69431 -0.86404,-1.29237 -0.8801,0.29708 -0.78946,-1.18081 4.861775,-1.37253 0.958629,1.43384 -3.115504,3.98448 z m 1.346892,-1.50678 0.538387,-0.60797 q 0.210277,-0.23901 0.485822,-0.54528 0.280084,-0.30536 0.399751,-0.4208 -0.118843,0.0519 -0.520756,0.21037 -0.423694,0.16122 -1.468922,0.51752 z"
           style="fill:#ffffff;fill-opacity:1;stroke-width:0.26458332px"
           id="path836" />
        <path
           d="m 53.007991,205.04037 -1.081819,-1.30531 1.480255,-3.49672 -0.0188,-0.0227 q -0.557534,0.54284 -0.895199,0.82269 l -1.660609,1.37629 -0.730958,-0.88196 3.684081,-3.05332 1.077642,1.30027 -1.449153,3.46245 0.01253,0.0151 q 0.547817,-0.51354 0.865323,-0.77668 l 1.665649,-1.38047 0.735135,0.887 z"
           style="fill:#ffffff;fill-opacity:1;stroke-width:0.26458332px"
           id="path838" />
        <path
           d="m 58.376582,206.82319 q -0.550516,0.56942 -1.153638,0.76477 -0.600769,0.19762 -1.207944,0.0158 -0.607174,-0.18187 -1.178947,-0.73466 l -1.112957,-1.07601 3.325848,-3.44005 1.190605,1.15108 q 0.550596,0.53232 0.75222,1.09599 0.206252,0.56359 0.05146,1.12865 -0.154798,0.56505 -0.666642,1.09447 z m -0.996567,-0.89975 q 0.457247,-0.47295 0.489671,-0.88318 0.03478,-0.40795 -0.346406,-0.77648 l -0.270592,-0.26161 -1.863112,1.92709 0.207062,0.20019 q 0.421182,0.4072 0.855418,0.35358 0.436588,-0.0514 0.927959,-0.55959 z"
           style="fill:#ffffff;fill-opacity:1;stroke-width:0.26458332px"
           id="path840" />
        <path
           d="m 56.899292,208.85138 z m 3.607641,-1.00206 1.742144,-0.88983 1.103712,0.86255 -3.036023,1.32832 -1.150738,1.47247 -1.026349,-0.80209 1.126555,-1.44153 0.579432,-3.29799 1.10887,0.86658 z m 0.789123,-2.12061 0.05844,-0.0748 q 0.695482,-0.10862 0.934698,-0.15428 0.20448,-0.0437 0.348673,-0.0847 l 1.103712,0.86255 -0.04232,0.0541 q -0.330686,0.003 -0.891229,-0.0236 -0.560542,-0.0268 -0.841496,-0.0553 z"
           style="fill:#ffffff;fill-opacity:1;stroke-width:0.26458332px"
           id="path842" />
        <path
           d="m 64.273108,212.30958 q -0.238389,0.37588 -0.617664,0.54615 -0.374757,0.16926 -0.832962,0.10345 -0.468249,-0.0683 -0.946398,-0.37156 -0.400761,-0.25416 -0.639326,-0.48297 -0.236813,-0.23158 -0.445914,-0.56185 l 0.617008,-0.97288 q 0.210651,0.35838 0.489998,0.66344 0.2811,0.30229 0.563014,0.48108 0.234929,0.149 0.401844,0.14247 0.171432,-0.008 0.259076,-0.14574 0.05083,-0.0802 0.04517,-0.169 -0.0039,-0.0916 -0.0641,-0.22281 -0.07603,-0.14898 -0.374184,-0.60161 -0.277522,-0.42404 -0.369596,-0.71884 -0.09207,-0.2948 -0.04858,-0.57726 0.04525,-0.28523 0.231051,-0.5782 0.23313,-0.36759 0.58382,-0.51723 0.352443,-0.15241 0.784559,-0.076 0.432115,0.0764 0.904736,0.37614 0.630162,0.39965 1.09562,1.10178 l -0.869052,0.63088 q -0.399059,-0.61739 -0.813639,-0.88032 -0.204526,-0.12971 -0.352364,-0.1227 -0.145073,0.009 -0.218693,0.12484 -0.07362,0.11608 -0.0106,0.29169 0.05723,0.16031 0.448737,0.76516 0.248334,0.3784 0.343171,0.67496 0.09659,0.29379 0.05357,0.55717 -0.04127,0.26062 -0.218307,0.53977 z"
           style="fill:#ffffff;fill-opacity:1;stroke-width:0.26458332px"
           id="path844" />
        <path
           d="m 67.755152,215.64426 0.826496,-1.84605 q 0.153798,-0.34351 0.130116,-0.55493 -0.02235,-0.2144 -0.234431,-0.30935 -0.200138,-0.0896 -0.369418,-0.0399 -0.167943,0.0467 -0.327676,0.25133 -0.158395,0.20161 -0.329579,0.58397 l -0.663337,1.48161 -1.167966,-0.52291 1.515243,-3.38442 0.881202,0.39453 -0.04086,0.48373 0.0687,0.0308 q 0.255009,-0.16912 0.571371,-0.17091 0.317699,-0.005 0.664206,0.15035 0.37339,0.16717 0.573713,0.43256 0.200323,0.2654 0.215005,0.60905 0.01602,0.34066 -0.159176,0.73197 l -0.985644,2.20151 z"
           style="fill:#ffffff;fill-opacity:1;stroke-width:0.26458332px"
           id="path846" />
        <path
           d="m 69.781972,215.87888 q 0.1022,-0.2867 0.32252,-0.37842 0.224502,-0.0937 0.545116,0.0206 0.305201,0.10879 0.413645,0.32118 0.108443,0.21238 0.0073,0.496 -0.0989,0.27746 -0.324504,0.37424 -0.221419,0.0948 -0.517371,-0.0107 -0.308284,-0.1099 -0.429059,-0.32668 -0.116593,-0.21876 -0.01769,-0.49622 z"
           style="fill:#ffffff;fill-opacity:1;stroke-width:0.26458332px"
           id="path848" />
        <path
           d="m 71.648697,217.11844 1.286936,-4.60858 1.245136,0.3477 -1.006134,3.60301 1.774712,0.49559 -0.280802,1.00556 z"
           style="fill:#ffffff;fill-opacity:1;stroke-width:0.26458332px"
           id="path850" />
        <path
           d="m 75.302504,217.52029 q 0.06163,-0.29807 0.267168,-0.41933 0.209411,-0.12381 0.542736,-0.0549 0.317301,0.0656 0.454037,0.26097 0.136736,0.19537 0.07577,0.49024 -0.05964,0.28845 -0.269711,0.41547 -0.206205,0.12447 -0.513891,0.0608 -0.320506,-0.0663 -0.470062,-0.26429 -0.145688,-0.20056 -0.08605,-0.48902 z"
           style="fill:#ffffff;fill-opacity:1;stroke-width:0.26458332px"
           id="path852" />
        <path
           d="m 78.826557,217.41007 0.121627,-1.01385 1.835991,0.22025 -0.121627,1.01386 z"
           style="fill:#ffffff;fill-opacity:1;stroke-width:0.26458332px"
           id="path854" />
        <path
           d="m 86.063145,217.70906 q -0.0094,0.44501 -0.245741,0.78703 -0.233019,0.33881 -0.659123,0.51969 -0.435989,0.18395 -1.002065,0.17202 -0.474456,-0.01 -0.797016,-0.0823 -0.32249,-0.0755 -0.672361,-0.24987 l 0.02428,-1.15178 q 0.365748,0.19758 0.762669,0.31397 0.396991,0.11313 0.730747,0.12016 0.278129,0.006 0.417558,-0.0861 0.142771,-0.0952 0.14622,-0.2588 0.002,-0.0949 -0.04884,-0.16798 -0.05077,-0.0764 -0.17018,-0.15745 -0.142179,-0.0881 -0.631578,-0.32103 -0.456953,-0.21914 -0.688337,-0.42371 -0.231384,-0.20456 -0.34039,-0.46874 -0.108936,-0.26746 -0.101624,-0.6143 0.0092,-0.4352 0.231756,-0.74477 0.222651,-0.31284 0.631911,-0.47116 0.409261,-0.15833 0.968792,-0.14653 0.746042,0.0157 1.507745,0.37551 l -0.416965,0.98965 q -0.661027,-0.32165 -1.151844,-0.332 -0.242136,-0.005 -0.364998,0.0774 -0.11959,0.0826 -0.122487,0.22002 -0.0029,0.13743 0.141934,0.25506 0.131949,0.10753 0.780025,0.42236 0.408355,0.1952 0.643011,0.39984 0.234725,0.20136 0.334259,0.44898 0.0996,0.24434 0.09264,0.57482 z"
           style="fill:#ffffff;fill-opacity:1;stroke-width:0.26458332px"
           id="path856" />
        <path
           d="m 88.889156,219.02221 -1.290754,0.0722 -0.208205,-3.72195 -1.16658,0.0653 -0.05904,-1.05548 3.620647,-0.20253 0.05904,1.05547 -1.163312,0.0651 z"
           style="fill:#ffffff;fill-opacity:1;stroke-width:0.26458332px"
           id="path858" />
        <path
           d="m 93.645962,218.46238 -0.365361,-0.85218 -1.53759,0.22935 -0.107244,0.92267 -1.404871,0.20955 0.835268,-4.98227 1.705914,-0.25445 2.272281,4.51875 z m -0.787235,-1.86138 -0.319812,-0.74647 q -0.126312,-0.29221 -0.285565,-0.67216 -0.156499,-0.38367 -0.209774,-0.54118 -0.0038,0.12963 -0.03218,0.56072 -0.03517,0.45197 -0.159384,1.54925 z"
           style="fill:#ffffff;fill-opacity:1;stroke-width:0.26458332px"
           id="path860" />
        <path
           d="m 96.367411,216.10886 0.435874,1.68571 -1.251609,0.32363 -1.197835,-4.63254 1.517774,-0.39245 q 1.888503,-0.48831 2.242446,0.88054 0.207286,0.80166 -0.46383,1.44846 l 1.871738,1.66939 -1.419546,0.36705 -1.418149,-1.43172 z m -0.243336,-0.94108 0.234478,-0.0606 q 0.655907,-0.1696 0.505973,-0.74946 -0.123717,-0.47846 -0.766949,-0.31214 l -0.247153,0.0639 z"
           style="fill:#ffffff;fill-opacity:1;stroke-width:0.26458332px"
           id="path862" />
        <path
           d="m 99.457191,217.11945 z m 3.227909,-1.22588 -0.53867,-0.75468 -1.45333,0.55194 0.092,0.92432 -1.327879,0.5043 -0.246326,-5.0458 1.612425,-0.61235 3.18357,3.9303 z m -1.16604,-1.65071 -0.47163,-0.66111 q -0.18572,-0.25856 -0.42232,-0.59581 -0.23471,-0.34147 -0.32035,-0.484 0.0239,0.12746 0.0881,0.55469 0.062,0.44907 0.17463,1.5476 z m -2.268894,-2.57273 -0.0337,-0.0887 q 0.267336,-0.65117 0.352188,-0.87945 0.06851,-0.19756 0.108125,-0.34214 l 1.309518,-0.49732 0.0244,0.0642 q -0.1685,0.28455 -0.48182,0.75013 -0.31331,0.46558 -0.48321,0.69115 z"
           style="fill:#ffffff;fill-opacity:1;stroke-width:0.26458332px"
           id="path864" />
        <path
           d="m 103.67696,210.21659 1.45211,-0.82307 q 0.85134,-0.48254 1.40498,-0.46152 0.55364,0.021 0.85381,0.5506 0.13072,0.23063 0.15628,0.4682 0.0284,0.23596 -0.0454,0.45085 -0.0754,0.21205 -0.24322,0.36735 l 0.0161,0.0285 q 0.43963,-0.11375 0.75011,0.0225 0.31048,0.13627 0.52996,0.5235 0.21142,0.37299 0.17435,0.75892 -0.0342,0.38431 -0.30906,0.73571 -0.27361,0.34695 -0.76049,0.62291 l -1.6201,0.91828 z m 2.03004,0.95985 0.33883,-0.19205 q 0.24487,-0.13879 0.31936,-0.31268 0.0729,-0.17674 -0.0369,-0.37036 -0.1985,-0.35021 -0.7281,-0.05 l -0.31604,0.17913 z m 0.46641,0.82286 0.49545,0.87411 0.39577,-0.22432 q 0.52675,-0.29856 0.27499,-0.74274 -0.11782,-0.20785 -0.32312,-0.2382 -0.20246,-0.032 -0.4701,0.11974 z"
           style="fill:#ffffff;fill-opacity:1;stroke-width:0.26458332px"
           id="path866" />
        <path
           d="m 112.15367,207.54093 q 0.71155,0.9758 0.60314,1.83256 -0.10841,0.85675 -1.03132,1.52974 -0.60557,0.44158 -1.19188,0.52076 -0.58823,0.0765 -1.12903,-0.2096 -0.54273,-0.28879 -1.01517,-0.93668 -0.70383,-0.96522 -0.59278,-1.82391 0.11176,-0.86326 1.03203,-1.53431 0.92291,-0.67299 1.76722,-0.51499 0.84431,0.15799 1.55779,1.13643 z m -2.66031,1.93989 q 0.81761,1.12124 1.59772,0.55239 0.39666,-0.28925 0.38844,-0.70047 -0.006,-0.41314 -0.42594,-0.98963 -0.42038,-0.57649 -0.81589,-0.71339 -0.39552,-0.1369 -0.78425,0.14657 -0.7854,0.57271 0.0399,1.70453 z"
           style="fill:#ffffff;fill-opacity:1;stroke-width:0.26458332px"
           id="path868" />
        <path
           d="m 114.20974,208.89527 -3.20115,-3.55638 0.96086,-0.86488 2.50267,2.7804 1.36953,-1.23272 0.69847,0.77598 z"
           style="fill:#ffffff;fill-opacity:1;stroke-width:0.26458332px"
           id="path870" />
        <path
           d="m 119.03112,204.18531 -1.95261,2.06339 -3.47544,-3.28884 1.95261,-2.0634 0.75357,0.71311 -1.06404,1.12441 0.54675,0.5174 0.9853,-1.04121 0.75357,0.71311 -0.9853,1.0412 0.6561,0.62088 1.06404,-1.12441 z"
           style="fill:#ffffff;fill-opacity:1;stroke-width:0.26458332px"
           id="path872" />
        <path
           d="m 120.42358,200.20555 q 0.34562,0.28049 0.47062,0.67699 0.12453,0.3919 0.006,0.83934 -0.12231,0.45713 -0.4791,0.89677 -0.29905,0.36848 -0.55405,0.57882 -0.25754,0.20827 -0.60988,0.37755 l -0.89453,-0.72596 q 0.38044,-0.16755 0.71592,-0.40952 0.33293,-0.24404 0.54329,-0.50325 0.17531,-0.21601 0.18823,-0.38255 0.0125,-0.17115 -0.11462,-0.27427 -0.0737,-0.0598 -0.1626,-0.0645 -0.0915,-0.007 -0.22875,0.0378 -0.15681,0.0582 -0.64104,0.30168 -0.45344,0.22632 -0.75695,0.28349 -0.30351,0.0572 -0.57899,-0.0189 -0.27803,-0.0781 -0.5474,-0.29672 -0.33799,-0.2743 -0.44584,-0.64002 -0.11038,-0.36777 0.0157,-0.78807 0.12613,-0.4203 0.4788,-0.85485 0.47023,-0.57941 1.22172,-0.96006 l 0.52554,0.93652 q -0.65961,0.32456 -0.96897,0.70575 -0.15261,0.18805 -0.16285,0.3357 -0.008,0.14511 0.0986,0.23173 0.10673,0.0866 0.28849,0.0444 0.16587,-0.0382 0.81215,-0.3567 0.40471,-0.20265 0.71028,-0.26235 0.30303,-0.0618 0.55963,0.0116 0.25405,0.0713 0.51071,0.27959 z"
           style="fill:#ffffff;fill-opacity:1;stroke-width:0.26458332px"
           id="path874" />
        <path
           d="m 121.99158,200.51653 -3.9314,-2.7275 0.73691,-1.06217 3.07359,2.13237 1.05033,-1.51394 0.85781,0.59513 z"
           style="fill:#ffffff;fill-opacity:1;stroke-width:0.26458332px"
           id="path876" />
        <path
           d="m 125.66386,194.75331 -0.89463,-0.2436 -0.77623,1.34695 0.65605,0.6576 -0.70923,1.23067 -3.38326,-3.75156 0.8612,-1.4944 4.95206,1.02933 z m -1.94739,-0.54054 -0.78351,-0.21355 q -0.3074,-0.0827 -0.70401,-0.19418 -0.39782,-0.11594 -0.55431,-0.17212 0.0992,0.0836 0.4192,0.37378 0.33215,0.30852 1.11441,1.08796 z"
           style="fill:#ffffff;fill-opacity:1;stroke-width:0.26458332px"
           id="path879" />
        <path
           d="m 123.33129,188.63778 0.59459,-1.31875 3.71766,3.39586 -0.62553,1.38737 -5.00369,-0.54354 0.59728,-1.32471 2.47854,0.40307 q 0.83229,0.15266 1.11784,0.25987 -0.18587,-0.10534 -0.46627,-0.30357 -0.28205,-0.20256 -0.46072,-0.34774 z"
           style="fill:#ffffff;fill-opacity:1;stroke-width:0.26458332px"
           id="path881" />
      </g>
    </g>
  </g>
</svg>
